%YAML 1.1
%TAG !u! tag:unity3d.com,2011:
--- !u!29 &1
SceneSettings:
  m_ObjectHideFlags: 0
  m_PVSData: 
  m_PVSObjectsArray: []
  m_PVSPortalsArray: []
  m_OcclusionBakeSettings:
    smallestOccluder: 5
    smallestHole: .25
    backfaceThreshold: 100
--- !u!104 &2
RenderSettings:
  m_ObjectHideFlags: 0
  serializedVersion: 6
  m_Fog: 0
  m_FogColor: {r: .5, g: .5, b: .5, a: 1}
  m_FogMode: 3
  m_FogDensity: .00999999978
  m_LinearFogStart: 0
  m_LinearFogEnd: 300
  m_AmbientSkyColor: {r: .200000003, g: .200000003, b: .200000003, a: 1}
  m_AmbientEquatorColor: {r: .200000003, g: .200000003, b: .200000003, a: 1}
  m_AmbientGroundColor: {r: .200000003, g: .200000003, b: .200000003, a: 1}
  m_AmbientIntensity: 1
  m_AmbientMode: 3
  m_SkyboxMaterial: {fileID: 0}
  m_HaloStrength: .5
  m_FlareStrength: 1
  m_FlareFadeSpeed: 3
  m_HaloTexture: {fileID: 0}
  m_SpotCookie: {fileID: 10001, guid: 0000000000000000e000000000000000, type: 0}
  m_DefaultReflectionMode: 0
  m_DefaultReflectionResolution: 128
  m_ReflectionBounces: 1
  m_ReflectionIntensity: 1
  m_CustomReflection: {fileID: 0}
  m_Sun: {fileID: 0}
--- !u!127 &3
LevelGameManager:
  m_ObjectHideFlags: 0
--- !u!157 &4
LightmapSettings:
  m_ObjectHideFlags: 0
  serializedVersion: 5
  m_GIWorkflowMode: 1
  m_LightmapsMode: 1
  m_GISettings:
    serializedVersion: 2
    m_BounceScale: 1
    m_IndirectOutputScale: 1
    m_AlbedoBoost: 1
    m_TemporalCoherenceThreshold: 1
    m_EnvironmentLightingMode: 0
    m_EnableBakedLightmaps: 1
    m_EnableRealtimeLightmaps: 0
  m_LightmapEditorSettings:
    serializedVersion: 3
    m_Resolution: 1
    m_BakeResolution: 50
    m_TextureWidth: 1024
    m_TextureHeight: 1024
    m_AOMaxDistance: 1
    m_Padding: 2
    m_CompAOExponent: 0
    m_LightmapParameters: {fileID: 0}
    m_TextureCompression: 0
    m_FinalGather: 0
    m_FinalGatherRayCount: 1024
  m_LightmapSnapshot: {fileID: 0}
  m_RuntimeCPUUsage: 25
--- !u!196 &5
NavMeshSettings:
  serializedVersion: 2
  m_ObjectHideFlags: 0
  m_BuildSettings:
    serializedVersion: 2
    agentRadius: .5
    agentHeight: 2
    agentSlope: 45
    agentClimb: .400000006
    ledgeDropHeight: 0
    maxJumpAcrossDistance: 0
    accuratePlacement: 0
    minRegionArea: 2
    cellSize: .166666657
    manualCellSize: 0
  m_NavMeshData: {fileID: 0}
--- !u!1 &66598622
GameObject:
  m_ObjectHideFlags: 0
  m_PrefabParentObject: {fileID: 0}
  m_PrefabInternal: {fileID: 0}
  serializedVersion: 4
  m_Component:
  - 4: {fileID: 66598626}
  - 114: {fileID: 66598625}
  - 114: {fileID: 66598624}
  - 114: {fileID: 66598623}
  m_Layer: 0
  m_Name: EventSystem
  m_TagString: Untagged
  m_Icon: {fileID: 0}
  m_NavMeshLayer: 0
  m_StaticEditorFlags: 0
  m_IsActive: 1
--- !u!114 &66598623
MonoBehaviour:
  m_ObjectHideFlags: 0
  m_PrefabParentObject: {fileID: 0}
  m_PrefabInternal: {fileID: 0}
  m_GameObject: {fileID: 66598622}
  m_Enabled: 1
  m_EditorHideFlags: 0
  m_Script: {fileID: 1997211142, guid: f5f67c52d1564df4a8936ccd202a3bd8, type: 3}
  m_Name: 
  m_EditorClassIdentifier: 
  m_AllowActivationOnStandalone: 0
--- !u!114 &66598624
MonoBehaviour:
  m_ObjectHideFlags: 0
  m_PrefabParentObject: {fileID: 0}
  m_PrefabInternal: {fileID: 0}
  m_GameObject: {fileID: 66598622}
  m_Enabled: 1
  m_EditorHideFlags: 0
  m_Script: {fileID: 1077351063, guid: f5f67c52d1564df4a8936ccd202a3bd8, type: 3}
  m_Name: 
  m_EditorClassIdentifier: 
  m_HorizontalAxis: Horizontal
  m_VerticalAxis: Vertical
  m_SubmitButton: Submit
  m_CancelButton: Cancel
  m_InputActionsPerSecond: 10
  m_RepeatDelay: .5
  m_AllowActivationOnMobileDevice: 0
--- !u!114 &66598625
MonoBehaviour:
  m_ObjectHideFlags: 0
  m_PrefabParentObject: {fileID: 0}
  m_PrefabInternal: {fileID: 0}
  m_GameObject: {fileID: 66598622}
  m_Enabled: 1
  m_EditorHideFlags: 0
  m_Script: {fileID: -619905303, guid: f5f67c52d1564df4a8936ccd202a3bd8, type: 3}
  m_Name: 
  m_EditorClassIdentifier: 
  m_FirstSelected: {fileID: 0}
  m_sendNavigationEvents: 1
  m_DragThreshold: 5
--- !u!4 &66598626
Transform:
  m_ObjectHideFlags: 0
  m_PrefabParentObject: {fileID: 0}
  m_PrefabInternal: {fileID: 0}
  m_GameObject: {fileID: 66598622}
  m_LocalRotation: {x: 0, y: 0, z: 0, w: 1}
  m_LocalPosition: {x: 0, y: 0, z: 0}
  m_LocalScale: {x: 1, y: 1, z: 1}
  m_Children: []
  m_Father: {fileID: 0}
  m_RootOrder: 4
--- !u!1001 &70114025
Prefab:
  m_ObjectHideFlags: 0
  serializedVersion: 2
  m_Modification:
    m_TransformParent: {fileID: 1830420122}
    m_Modifications:
    - target: {fileID: 11497432, guid: f4503fa662c108b438db9639907f5849, type: 2}
      propertyPath: attackerPrefabArray.Array.size
      value: 1
      objectReference: {fileID: 0}
    - target: {fileID: 496268, guid: f4503fa662c108b438db9639907f5849, type: 2}
      propertyPath: m_LocalPosition.x
      value: 12
      objectReference: {fileID: 0}
    - target: {fileID: 496268, guid: f4503fa662c108b438db9639907f5849, type: 2}
      propertyPath: m_LocalPosition.y
      value: 2
      objectReference: {fileID: 0}
    - target: {fileID: 496268, guid: f4503fa662c108b438db9639907f5849, type: 2}
      propertyPath: m_LocalPosition.z
      value: 0
      objectReference: {fileID: 0}
    - target: {fileID: 496268, guid: f4503fa662c108b438db9639907f5849, type: 2}
      propertyPath: m_LocalRotation.x
      value: 0
      objectReference: {fileID: 0}
    - target: {fileID: 496268, guid: f4503fa662c108b438db9639907f5849, type: 2}
      propertyPath: m_LocalRotation.y
      value: 0
      objectReference: {fileID: 0}
    - target: {fileID: 496268, guid: f4503fa662c108b438db9639907f5849, type: 2}
      propertyPath: m_LocalRotation.z
      value: 0
      objectReference: {fileID: 0}
    - target: {fileID: 496268, guid: f4503fa662c108b438db9639907f5849, type: 2}
      propertyPath: m_LocalRotation.w
      value: 1
      objectReference: {fileID: 0}
    - target: {fileID: 496268, guid: f4503fa662c108b438db9639907f5849, type: 2}
      propertyPath: m_RootOrder
      value: 3
      objectReference: {fileID: 0}
    - target: {fileID: 143166, guid: f4503fa662c108b438db9639907f5849, type: 2}
      propertyPath: m_Name
      value: Spawner
      objectReference: {fileID: 0}
    - target: {fileID: 11497432, guid: f4503fa662c108b438db9639907f5849, type: 2}
      propertyPath: attackerPrefabArray.Array.data[0]
      value: 
      objectReference: {fileID: 166276, guid: 48cf4283b7c0cb4479e282f736a5328e, type: 2}
    - target: {fileID: 11497432, guid: f4503fa662c108b438db9639907f5849, type: 2}
      propertyPath: attackerPrefabArray.Array.data[1]
      value: 
      objectReference: {fileID: 166276, guid: 48cf4283b7c0cb4479e282f736a5328e, type: 2}
    m_RemovedComponents: []
  m_ParentPrefab: {fileID: 100100000, guid: f4503fa662c108b438db9639907f5849, type: 2}
  m_IsPrefabParent: 0
--- !u!4 &70114026 stripped
Transform:
  m_PrefabParentObject: {fileID: 496268, guid: f4503fa662c108b438db9639907f5849, type: 2}
  m_PrefabInternal: {fileID: 70114025}
--- !u!1001 &637309458
Prefab:
  m_ObjectHideFlags: 0
  serializedVersion: 2
  m_Modification:
    m_TransformParent: {fileID: 0}
    m_Modifications:
    - target: {fileID: 22400008, guid: 42dba5d2b77474a79a08d1570edcea0a, type: 2}
      propertyPath: m_LocalPosition.x
      value: 0
      objectReference: {fileID: 0}
    - target: {fileID: 22400008, guid: 42dba5d2b77474a79a08d1570edcea0a, type: 2}
      propertyPath: m_LocalPosition.y
      value: 0
      objectReference: {fileID: 0}
    - target: {fileID: 22400008, guid: 42dba5d2b77474a79a08d1570edcea0a, type: 2}
      propertyPath: m_LocalPosition.z
      value: .5
      objectReference: {fileID: 0}
    - target: {fileID: 22400008, guid: 42dba5d2b77474a79a08d1570edcea0a, type: 2}
      propertyPath: m_LocalRotation.x
      value: 0
      objectReference: {fileID: 0}
    - target: {fileID: 22400008, guid: 42dba5d2b77474a79a08d1570edcea0a, type: 2}
      propertyPath: m_LocalRotation.y
      value: 0
      objectReference: {fileID: 0}
    - target: {fileID: 22400008, guid: 42dba5d2b77474a79a08d1570edcea0a, type: 2}
      propertyPath: m_LocalRotation.z
      value: 0
      objectReference: {fileID: 0}
    - target: {fileID: 22400008, guid: 42dba5d2b77474a79a08d1570edcea0a, type: 2}
      propertyPath: m_LocalRotation.w
      value: 1
      objectReference: {fileID: 0}
    - target: {fileID: 22400008, guid: 42dba5d2b77474a79a08d1570edcea0a, type: 2}
      propertyPath: m_RootOrder
      value: 0
      objectReference: {fileID: 0}
    - target: {fileID: 22400008, guid: 42dba5d2b77474a79a08d1570edcea0a, type: 2}
      propertyPath: m_AnchoredPosition.x
      value: 5
      objectReference: {fileID: 0}
    - target: {fileID: 22400008, guid: 42dba5d2b77474a79a08d1570edcea0a, type: 2}
      propertyPath: m_AnchoredPosition.y
      value: 3
      objectReference: {fileID: 0}
    - target: {fileID: 22400008, guid: 42dba5d2b77474a79a08d1570edcea0a, type: 2}
      propertyPath: m_SizeDelta.x
      value: 1600
      objectReference: {fileID: 0}
    - target: {fileID: 22400008, guid: 42dba5d2b77474a79a08d1570edcea0a, type: 2}
      propertyPath: m_SizeDelta.y
      value: 900
      objectReference: {fileID: 0}
    - target: {fileID: 22400008, guid: 42dba5d2b77474a79a08d1570edcea0a, type: 2}
      propertyPath: m_AnchorMin.x
      value: 0
      objectReference: {fileID: 0}
    - target: {fileID: 22400008, guid: 42dba5d2b77474a79a08d1570edcea0a, type: 2}
      propertyPath: m_AnchorMin.y
      value: 0
      objectReference: {fileID: 0}
    - target: {fileID: 22400008, guid: 42dba5d2b77474a79a08d1570edcea0a, type: 2}
      propertyPath: m_AnchorMax.x
      value: 0
      objectReference: {fileID: 0}
    - target: {fileID: 22400008, guid: 42dba5d2b77474a79a08d1570edcea0a, type: 2}
      propertyPath: m_AnchorMax.y
      value: 0
      objectReference: {fileID: 0}
    - target: {fileID: 22400008, guid: 42dba5d2b77474a79a08d1570edcea0a, type: 2}
      propertyPath: m_Pivot.x
      value: .5
      objectReference: {fileID: 0}
    - target: {fileID: 22400008, guid: 42dba5d2b77474a79a08d1570edcea0a, type: 2}
      propertyPath: m_Pivot.y
      value: .5
      objectReference: {fileID: 0}
    - target: {fileID: 11416342, guid: 42dba5d2b77474a79a08d1570edcea0a, type: 2}
      propertyPath: myCamera
      value: 
      objectReference: {fileID: 1930849547}
    - target: {fileID: 100008, guid: 42dba5d2b77474a79a08d1570edcea0a, type: 2}
      propertyPath: m_Name
      value: Level Canvas
      objectReference: {fileID: 0}
    - target: {fileID: 22431430, guid: 42dba5d2b77474a79a08d1570edcea0a, type: 2}
      propertyPath: m_AnchorMax.y
      value: 0
      objectReference: {fileID: 0}
    - target: {fileID: 22489126, guid: 42dba5d2b77474a79a08d1570edcea0a, type: 2}
      propertyPath: m_AnchorMax.y
      value: 0
      objectReference: {fileID: 0}
    m_RemovedComponents: []
  m_ParentPrefab: {fileID: 100100000, guid: 42dba5d2b77474a79a08d1570edcea0a, type: 2}
  m_IsPrefabParent: 0
--- !u!1001 &645217028
Prefab:
  m_ObjectHideFlags: 0
  serializedVersion: 2
  m_Modification:
    m_TransformParent: {fileID: 1830420122}
    m_Modifications:
    - target: {fileID: 11497432, guid: f4503fa662c108b438db9639907f5849, type: 2}
      propertyPath: attackerPrefabArray.Array.size
      value: 1
      objectReference: {fileID: 0}
    - target: {fileID: 496268, guid: f4503fa662c108b438db9639907f5849, type: 2}
      propertyPath: m_LocalPosition.x
      value: 12
      objectReference: {fileID: 0}
    - target: {fileID: 496268, guid: f4503fa662c108b438db9639907f5849, type: 2}
      propertyPath: m_LocalPosition.y
      value: 1
      objectReference: {fileID: 0}
    - target: {fileID: 496268, guid: f4503fa662c108b438db9639907f5849, type: 2}
      propertyPath: m_LocalPosition.z
      value: 0
      objectReference: {fileID: 0}
    - target: {fileID: 496268, guid: f4503fa662c108b438db9639907f5849, type: 2}
      propertyPath: m_LocalRotation.x
      value: 0
      objectReference: {fileID: 0}
    - target: {fileID: 496268, guid: f4503fa662c108b438db9639907f5849, type: 2}
      propertyPath: m_LocalRotation.y
      value: 0
      objectReference: {fileID: 0}
    - target: {fileID: 496268, guid: f4503fa662c108b438db9639907f5849, type: 2}
      propertyPath: m_LocalRotation.z
      value: 0
      objectReference: {fileID: 0}
    - target: {fileID: 496268, guid: f4503fa662c108b438db9639907f5849, type: 2}
      propertyPath: m_LocalRotation.w
      value: 1
      objectReference: {fileID: 0}
    - target: {fileID: 496268, guid: f4503fa662c108b438db9639907f5849, type: 2}
      propertyPath: m_RootOrder
      value: 4
      objectReference: {fileID: 0}
    - target: {fileID: 11497432, guid: f4503fa662c108b438db9639907f5849, type: 2}
      propertyPath: attackerPrefabArray.Array.data[0]
      value: 
      objectReference: {fileID: 166276, guid: 48cf4283b7c0cb4479e282f736a5328e, type: 2}
    - target: {fileID: 11497432, guid: f4503fa662c108b438db9639907f5849, type: 2}
      propertyPath: attackerPrefabArray.Array.data[1]
      value: 
      objectReference: {fileID: 166276, guid: 48cf4283b7c0cb4479e282f736a5328e, type: 2}
    m_RemovedComponents: []
  m_ParentPrefab: {fileID: 100100000, guid: f4503fa662c108b438db9639907f5849, type: 2}
  m_IsPrefabParent: 0
--- !u!1 &686197380
GameObject:
  m_ObjectHideFlags: 0
  m_PrefabParentObject: {fileID: 0}
  m_PrefabInternal: {fileID: 0}
  serializedVersion: 4
  m_Component:
  - 4: {fileID: 686197381}
  m_Layer: 0
  m_Name: Attackers
  m_TagString: Untagged
  m_Icon: {fileID: 0}
  m_NavMeshLayer: 0
  m_StaticEditorFlags: 0
  m_IsActive: 1
--- !u!4 &686197381
Transform:
  m_ObjectHideFlags: 0
  m_PrefabParentObject: {fileID: 0}
  m_PrefabInternal: {fileID: 0}
  m_GameObject: {fileID: 686197380}
  m_LocalRotation: {x: 0, y: 0, z: 0, w: 1}
  m_LocalPosition: {x: 0, y: 0, z: 0}
  m_LocalScale: {x: 1, y: 1, z: 1}
  m_Children: []
  m_Father: {fileID: 0}
  m_RootOrder: 5
--- !u!1001 &694687458
Prefab:
  m_ObjectHideFlags: 0
  serializedVersion: 2
  m_Modification:
    m_TransformParent: {fileID: 0}
    m_Modifications:
    - target: {fileID: 419724, guid: 2e5e92c5315f58249bdcd008fafd5cc1, type: 2}
      propertyPath: m_LocalPosition.x
      value: 16
      objectReference: {fileID: 0}
    - target: {fileID: 419724, guid: 2e5e92c5315f58249bdcd008fafd5cc1, type: 2}
      propertyPath: m_LocalPosition.y
      value: 3
      objectReference: {fileID: 0}
    - target: {fileID: 419724, guid: 2e5e92c5315f58249bdcd008fafd5cc1, type: 2}
      propertyPath: m_LocalPosition.z
      value: 0
      objectReference: {fileID: 0}
    - target: {fileID: 419724, guid: 2e5e92c5315f58249bdcd008fafd5cc1, type: 2}
      propertyPath: m_LocalRotation.x
      value: 0
      objectReference: {fileID: 0}
    - target: {fileID: 419724, guid: 2e5e92c5315f58249bdcd008fafd5cc1, type: 2}
      propertyPath: m_LocalRotation.y
      value: 0
      objectReference: {fileID: 0}
    - target: {fileID: 419724, guid: 2e5e92c5315f58249bdcd008fafd5cc1, type: 2}
      propertyPath: m_LocalRotation.z
      value: 0
      objectReference: {fileID: 0}
    - target: {fileID: 419724, guid: 2e5e92c5315f58249bdcd008fafd5cc1, type: 2}
      propertyPath: m_LocalRotation.w
      value: 1
      objectReference: {fileID: 0}
    - target: {fileID: 419724, guid: 2e5e92c5315f58249bdcd008fafd5cc1, type: 2}
      propertyPath: m_RootOrder
      value: 3
      objectReference: {fileID: 0}
    m_RemovedComponents: []
  m_ParentPrefab: {fileID: 100100000, guid: 2e5e92c5315f58249bdcd008fafd5cc1, type: 2}
  m_IsPrefabParent: 0
--- !u!1001 &737858681
Prefab:
  m_ObjectHideFlags: 0
  serializedVersion: 2
  m_Modification:
    m_TransformParent: {fileID: 0}
    m_Modifications:
    - target: {fileID: 493838, guid: ae0475f063bd6b3478fa61ad5c8cd9f4, type: 2}
      propertyPath: m_LocalPosition.x
      value: -1.63
      objectReference: {fileID: 0}
    - target: {fileID: 493838, guid: ae0475f063bd6b3478fa61ad5c8cd9f4, type: 2}
      propertyPath: m_LocalPosition.y
      value: 3
      objectReference: {fileID: 0}
    - target: {fileID: 493838, guid: ae0475f063bd6b3478fa61ad5c8cd9f4, type: 2}
      propertyPath: m_LocalPosition.z
      value: 0
      objectReference: {fileID: 0}
    - target: {fileID: 493838, guid: ae0475f063bd6b3478fa61ad5c8cd9f4, type: 2}
      propertyPath: m_LocalRotation.x
      value: 0
      objectReference: {fileID: 0}
    - target: {fileID: 493838, guid: ae0475f063bd6b3478fa61ad5c8cd9f4, type: 2}
      propertyPath: m_LocalRotation.y
      value: 0
      objectReference: {fileID: 0}
    - target: {fileID: 493838, guid: ae0475f063bd6b3478fa61ad5c8cd9f4, type: 2}
      propertyPath: m_LocalRotation.z
      value: 0
      objectReference: {fileID: 0}
    - target: {fileID: 493838, guid: ae0475f063bd6b3478fa61ad5c8cd9f4, type: 2}
      propertyPath: m_LocalRotation.w
      value: 1
      objectReference: {fileID: 0}
    - target: {fileID: 493838, guid: ae0475f063bd6b3478fa61ad5c8cd9f4, type: 2}
      propertyPath: m_RootOrder
      value: 2
      objectReference: {fileID: 0}
    m_RemovedComponents: []
  m_ParentPrefab: {fileID: 100100000, guid: ae0475f063bd6b3478fa61ad5c8cd9f4, type: 2}
  m_IsPrefabParent: 0
--- !u!1001 &841567317
Prefab:
  m_ObjectHideFlags: 0
  serializedVersion: 2
  m_Modification:
    m_TransformParent: {fileID: 1830420122}
    m_Modifications:
    - target: {fileID: 11497432, guid: f4503fa662c108b438db9639907f5849, type: 2}
      propertyPath: attackerPrefabArray.Array.size
      value: 1
      objectReference: {fileID: 0}
    - target: {fileID: 496268, guid: f4503fa662c108b438db9639907f5849, type: 2}
      propertyPath: m_LocalPosition.x
      value: 12
      objectReference: {fileID: 0}
    - target: {fileID: 496268, guid: f4503fa662c108b438db9639907f5849, type: 2}
      propertyPath: m_LocalPosition.y
      value: 5
      objectReference: {fileID: 0}
    - target: {fileID: 496268, guid: f4503fa662c108b438db9639907f5849, type: 2}
      propertyPath: m_LocalPosition.z
      value: 0
      objectReference: {fileID: 0}
    - target: {fileID: 496268, guid: f4503fa662c108b438db9639907f5849, type: 2}
      propertyPath: m_LocalRotation.x
      value: 0
      objectReference: {fileID: 0}
    - target: {fileID: 496268, guid: f4503fa662c108b438db9639907f5849, type: 2}
      propertyPath: m_LocalRotation.y
      value: 0
      objectReference: {fileID: 0}
    - target: {fileID: 496268, guid: f4503fa662c108b438db9639907f5849, type: 2}
      propertyPath: m_LocalRotation.z
      value: 0
      objectReference: {fileID: 0}
    - target: {fileID: 496268, guid: f4503fa662c108b438db9639907f5849, type: 2}
      propertyPath: m_LocalRotation.w
      value: 1
      objectReference: {fileID: 0}
    - target: {fileID: 496268, guid: f4503fa662c108b438db9639907f5849, type: 2}
      propertyPath: m_RootOrder
      value: 0
      objectReference: {fileID: 0}
    - target: {fileID: 11497432, guid: f4503fa662c108b438db9639907f5849, type: 2}
      propertyPath: attackerPrefabArray.Array.data[0]
      value: 
      objectReference: {fileID: 166276, guid: 48cf4283b7c0cb4479e282f736a5328e, type: 2}
    - target: {fileID: 11497432, guid: f4503fa662c108b438db9639907f5849, type: 2}
      propertyPath: attackerPrefabArray.Array.data[1]
      value: 
      objectReference: {fileID: 166276, guid: 48cf4283b7c0cb4479e282f736a5328e, type: 2}
    m_RemovedComponents: []
  m_ParentPrefab: {fileID: 100100000, guid: f4503fa662c108b438db9639907f5849, type: 2}
  m_IsPrefabParent: 0
--- !u!4 &841567318 stripped
Transform:
  m_PrefabParentObject: {fileID: 496268, guid: f4503fa662c108b438db9639907f5849, type: 2}
  m_PrefabInternal: {fileID: 841567317}
--- !u!1001 &1016404900
Prefab:
  m_ObjectHideFlags: 0
  serializedVersion: 2
  m_Modification:
    m_TransformParent: {fileID: 1830420122}
    m_Modifications:
    - target: {fileID: 11497432, guid: f4503fa662c108b438db9639907f5849, type: 2}
      propertyPath: attackerPrefabArray.Array.size
      value: 1
      objectReference: {fileID: 0}
    - target: {fileID: 496268, guid: f4503fa662c108b438db9639907f5849, type: 2}
      propertyPath: m_LocalPosition.x
      value: 12
      objectReference: {fileID: 0}
    - target: {fileID: 496268, guid: f4503fa662c108b438db9639907f5849, type: 2}
      propertyPath: m_LocalPosition.y
      value: 4
      objectReference: {fileID: 0}
    - target: {fileID: 496268, guid: f4503fa662c108b438db9639907f5849, type: 2}
      propertyPath: m_LocalPosition.z
      value: 0
      objectReference: {fileID: 0}
    - target: {fileID: 496268, guid: f4503fa662c108b438db9639907f5849, type: 2}
      propertyPath: m_LocalRotation.x
      value: 0
      objectReference: {fileID: 0}
    - target: {fileID: 496268, guid: f4503fa662c108b438db9639907f5849, type: 2}
      propertyPath: m_LocalRotation.y
      value: 0
      objectReference: {fileID: 0}
    - target: {fileID: 496268, guid: f4503fa662c108b438db9639907f5849, type: 2}
      propertyPath: m_LocalRotation.z
      value: 0
      objectReference: {fileID: 0}
    - target: {fileID: 496268, guid: f4503fa662c108b438db9639907f5849, type: 2}
      propertyPath: m_LocalRotation.w
      value: 1
      objectReference: {fileID: 0}
    - target: {fileID: 496268, guid: f4503fa662c108b438db9639907f5849, type: 2}
      propertyPath: m_RootOrder
      value: 1
      objectReference: {fileID: 0}
    - target: {fileID: 143166, guid: f4503fa662c108b438db9639907f5849, type: 2}
      propertyPath: m_Name
      value: Spawner
      objectReference: {fileID: 0}
    - target: {fileID: 11497432, guid: f4503fa662c108b438db9639907f5849, type: 2}
      propertyPath: attackerPrefabArray.Array.data[0]
      value: 
      objectReference: {fileID: 166276, guid: 48cf4283b7c0cb4479e282f736a5328e, type: 2}
    - target: {fileID: 11497432, guid: f4503fa662c108b438db9639907f5849, type: 2}
      propertyPath: attackerPrefabArray.Array.data[1]
      value: 
      objectReference: {fileID: 166276, guid: 48cf4283b7c0cb4479e282f736a5328e, type: 2}
    m_RemovedComponents: []
  m_ParentPrefab: {fileID: 100100000, guid: f4503fa662c108b438db9639907f5849, type: 2}
  m_IsPrefabParent: 0
--- !u!4 &1016404901 stripped
Transform:
  m_PrefabParentObject: {fileID: 496268, guid: f4503fa662c108b438db9639907f5849, type: 2}
  m_PrefabInternal: {fileID: 1016404900}
--- !u!1001 &1316792018
Prefab:
  m_ObjectHideFlags: 0
  serializedVersion: 2
  m_Modification:
    m_TransformParent: {fileID: 1830420122}
    m_Modifications:
    - target: {fileID: 11497432, guid: f4503fa662c108b438db9639907f5849, type: 2}
      propertyPath: attackerPrefabArray.Array.size
      value: 1
      objectReference: {fileID: 0}
    - target: {fileID: 496268, guid: f4503fa662c108b438db9639907f5849, type: 2}
      propertyPath: m_LocalPosition.x
      value: 12
      objectReference: {fileID: 0}
    - target: {fileID: 496268, guid: f4503fa662c108b438db9639907f5849, type: 2}
      propertyPath: m_LocalPosition.y
      value: 3
      objectReference: {fileID: 0}
    - target: {fileID: 496268, guid: f4503fa662c108b438db9639907f5849, type: 2}
      propertyPath: m_LocalPosition.z
      value: 0
      objectReference: {fileID: 0}
    - target: {fileID: 496268, guid: f4503fa662c108b438db9639907f5849, type: 2}
      propertyPath: m_LocalRotation.x
      value: 0
      objectReference: {fileID: 0}
    - target: {fileID: 496268, guid: f4503fa662c108b438db9639907f5849, type: 2}
      propertyPath: m_LocalRotation.y
      value: 0
      objectReference: {fileID: 0}
    - target: {fileID: 496268, guid: f4503fa662c108b438db9639907f5849, type: 2}
      propertyPath: m_LocalRotation.z
      value: 0
      objectReference: {fileID: 0}
    - target: {fileID: 496268, guid: f4503fa662c108b438db9639907f5849, type: 2}
      propertyPath: m_LocalRotation.w
      value: 1
      objectReference: {fileID: 0}
    - target: {fileID: 496268, guid: f4503fa662c108b438db9639907f5849, type: 2}
      propertyPath: m_RootOrder
      value: 2
      objectReference: {fileID: 0}
    - target: {fileID: 143166, guid: f4503fa662c108b438db9639907f5849, type: 2}
      propertyPath: m_Name
      value: Spawner
      objectReference: {fileID: 0}
    - target: {fileID: 11497432, guid: f4503fa662c108b438db9639907f5849, type: 2}
      propertyPath: attackerPrefabArray.Array.data[0]
      value: 
      objectReference: {fileID: 166276, guid: 48cf4283b7c0cb4479e282f736a5328e, type: 2}
    - target: {fileID: 11497432, guid: f4503fa662c108b438db9639907f5849, type: 2}
      propertyPath: attackerPrefabArray.Array.data[1]
      value: 
      objectReference: {fileID: 166276, guid: 48cf4283b7c0cb4479e282f736a5328e, type: 2}
    m_RemovedComponents: []
  m_ParentPrefab: {fileID: 100100000, guid: f4503fa662c108b438db9639907f5849, type: 2}
  m_IsPrefabParent: 0
--- !u!4 &1316792019 stripped
Transform:
  m_PrefabParentObject: {fileID: 496268, guid: f4503fa662c108b438db9639907f5849, type: 2}
  m_PrefabInternal: {fileID: 1316792018}
--- !u!1001 &1333997703
Prefab:
  m_ObjectHideFlags: 0
  serializedVersion: 2
  m_Modification:
    m_TransformParent: {fileID: 0}
    m_Modifications:
    - target: {fileID: 400000, guid: 2bfe2b1bf4a544646aaf0e0ec87a34cd, type: 2}
      propertyPath: m_LocalPosition.x
      value: 5
      objectReference: {fileID: 0}
    - target: {fileID: 400000, guid: 2bfe2b1bf4a544646aaf0e0ec87a34cd, type: 2}
      propertyPath: m_LocalPosition.y
      value: 3
      objectReference: {fileID: 0}
    - target: {fileID: 400000, guid: 2bfe2b1bf4a544646aaf0e0ec87a34cd, type: 2}
      propertyPath: m_LocalPosition.z
      value: -10
      objectReference: {fileID: 0}
    - target: {fileID: 400000, guid: 2bfe2b1bf4a544646aaf0e0ec87a34cd, type: 2}
      propertyPath: m_LocalRotation.x
      value: 0
      objectReference: {fileID: 0}
    - target: {fileID: 400000, guid: 2bfe2b1bf4a544646aaf0e0ec87a34cd, type: 2}
      propertyPath: m_LocalRotation.y
      value: 0
      objectReference: {fileID: 0}
    - target: {fileID: 400000, guid: 2bfe2b1bf4a544646aaf0e0ec87a34cd, type: 2}
      propertyPath: m_LocalRotation.z
      value: 0
      objectReference: {fileID: 0}
    - target: {fileID: 400000, guid: 2bfe2b1bf4a544646aaf0e0ec87a34cd, type: 2}
      propertyPath: m_LocalRotation.w
      value: 1
      objectReference: {fileID: 0}
    - target: {fileID: 400000, guid: 2bfe2b1bf4a544646aaf0e0ec87a34cd, type: 2}
      propertyPath: m_RootOrder
      value: 1
      objectReference: {fileID: 0}
    m_RemovedComponents: []
  m_ParentPrefab: {fileID: 100100000, guid: 2bfe2b1bf4a544646aaf0e0ec87a34cd, type: 2}
  m_IsPrefabParent: 0
--- !u!1001 &1731911642
Prefab:
  m_ObjectHideFlags: 0
  serializedVersion: 2
  m_Modification:
    m_TransformParent: {fileID: 0}
    m_Modifications:
    - target: {fileID: 22403666, guid: 05e0f4f030525ed4c9815a637881f530, type: 2}
      propertyPath: m_LocalPosition.x
      value: 0
      objectReference: {fileID: 0}
    - target: {fileID: 22403666, guid: 05e0f4f030525ed4c9815a637881f530, type: 2}
      propertyPath: m_LocalPosition.y
      value: 0
      objectReference: {fileID: 0}
    - target: {fileID: 22403666, guid: 05e0f4f030525ed4c9815a637881f530, type: 2}
      propertyPath: m_LocalPosition.z
      value: 0
      objectReference: {fileID: 0}
    - target: {fileID: 22403666, guid: 05e0f4f030525ed4c9815a637881f530, type: 2}
      propertyPath: m_LocalRotation.x
      value: 0
      objectReference: {fileID: 0}
    - target: {fileID: 22403666, guid: 05e0f4f030525ed4c9815a637881f530, type: 2}
      propertyPath: m_LocalRotation.y
      value: 0
      objectReference: {fileID: 0}
    - target: {fileID: 22403666, guid: 05e0f4f030525ed4c9815a637881f530, type: 2}
      propertyPath: m_LocalRotation.z
      value: 0
      objectReference: {fileID: 0}
    - target: {fileID: 22403666, guid: 05e0f4f030525ed4c9815a637881f530, type: 2}
      propertyPath: m_LocalRotation.w
      value: 1
      objectReference: {fileID: 0}
    - target: {fileID: 22403666, guid: 05e0f4f030525ed4c9815a637881f530, type: 2}
      propertyPath: m_RootOrder
      value: 8
      objectReference: {fileID: 0}
    - target: {fileID: 22403666, guid: 05e0f4f030525ed4c9815a637881f530, type: 2}
      propertyPath: m_AnchoredPosition.x
      value: 0
      objectReference: {fileID: 0}
    - target: {fileID: 22403666, guid: 05e0f4f030525ed4c9815a637881f530, type: 2}
      propertyPath: m_AnchoredPosition.y
      value: 0
      objectReference: {fileID: 0}
    - target: {fileID: 22403666, guid: 05e0f4f030525ed4c9815a637881f530, type: 2}
      propertyPath: m_SizeDelta.x
      value: 300
      objectReference: {fileID: 0}
    - target: {fileID: 22403666, guid: 05e0f4f030525ed4c9815a637881f530, type: 2}
      propertyPath: m_SizeDelta.y
      value: 300
      objectReference: {fileID: 0}
    - target: {fileID: 22403666, guid: 05e0f4f030525ed4c9815a637881f530, type: 2}
      propertyPath: m_AnchorMin.x
      value: 0
      objectReference: {fileID: 0}
    - target: {fileID: 22403666, guid: 05e0f4f030525ed4c9815a637881f530, type: 2}
      propertyPath: m_AnchorMin.y
      value: 0
      objectReference: {fileID: 0}
    - target: {fileID: 22403666, guid: 05e0f4f030525ed4c9815a637881f530, type: 2}
      propertyPath: m_AnchorMax.x
      value: 0
      objectReference: {fileID: 0}
    - target: {fileID: 22403666, guid: 05e0f4f030525ed4c9815a637881f530, type: 2}
      propertyPath: m_AnchorMax.y
      value: 0
      objectReference: {fileID: 0}
    - target: {fileID: 22403666, guid: 05e0f4f030525ed4c9815a637881f530, type: 2}
      propertyPath: m_Pivot.x
      value: .5
      objectReference: {fileID: 0}
    - target: {fileID: 22403666, guid: 05e0f4f030525ed4c9815a637881f530, type: 2}
      propertyPath: m_Pivot.y
      value: .5
      objectReference: {fileID: 0}
    m_RemovedComponents: []
  m_ParentPrefab: {fileID: 100100000, guid: 05e0f4f030525ed4c9815a637881f530, type: 2}
  m_IsPrefabParent: 0
--- !u!4 &1792990094 stripped
Transform:
  m_PrefabParentObject: {fileID: 496268, guid: f4503fa662c108b438db9639907f5849, type: 2}
  m_PrefabInternal: {fileID: 645217028}
--- !u!1 &1830420121
GameObject:
  m_ObjectHideFlags: 0
  m_PrefabParentObject: {fileID: 0}
  m_PrefabInternal: {fileID: 0}
  serializedVersion: 4
  m_Component:
  - 4: {fileID: 1830420122}
  m_Layer: 0
  m_Name: Spawners
  m_TagString: Untagged
  m_Icon: {fileID: 0}
  m_NavMeshLayer: 0
  m_StaticEditorFlags: 0
  m_IsActive: 1
--- !u!4 &1830420122
Transform:
  m_ObjectHideFlags: 0
  m_PrefabParentObject: {fileID: 0}
  m_PrefabInternal: {fileID: 0}
  m_GameObject: {fileID: 1830420121}
  m_LocalRotation: {x: 0, y: 0, z: 0, w: 1}
  m_LocalPosition: {x: 0, y: 0, z: 0}
  m_LocalScale: {x: 1, y: 1, z: 1}
  m_Children:
  - {fileID: 841567318}
  - {fileID: 1016404901}
  - {fileID: 1316792019}
  - {fileID: 70114026}
  - {fileID: 1792990094}
  m_Father: {fileID: 0}
  m_RootOrder: 6
--- !u!1001 &1837514571
Prefab:
  m_ObjectHideFlags: 0
  serializedVersion: 2
  m_Modification:
    m_TransformParent: {fileID: 0}
    m_Modifications:
    - target: {fileID: 400000, guid: ed65dde16a38c42a79b8011ae4ed0bbb, type: 2}
      propertyPath: m_LocalPosition.x
      value: 0
      objectReference: {fileID: 0}
    - target: {fileID: 400000, guid: ed65dde16a38c42a79b8011ae4ed0bbb, type: 2}
      propertyPath: m_LocalPosition.y
      value: 0
      objectReference: {fileID: 0}
    - target: {fileID: 400000, guid: ed65dde16a38c42a79b8011ae4ed0bbb, type: 2}
      propertyPath: m_LocalPosition.z
      value: 0
      objectReference: {fileID: 0}
    - target: {fileID: 400000, guid: ed65dde16a38c42a79b8011ae4ed0bbb, type: 2}
      propertyPath: m_LocalRotation.x
      value: 0
      objectReference: {fileID: 0}
    - target: {fileID: 400000, guid: ed65dde16a38c42a79b8011ae4ed0bbb, type: 2}
      propertyPath: m_LocalRotation.y
      value: 0
      objectReference: {fileID: 0}
    - target: {fileID: 400000, guid: ed65dde16a38c42a79b8011ae4ed0bbb, type: 2}
      propertyPath: m_LocalRotation.z
      value: 0
      objectReference: {fileID: 0}
    - target: {fileID: 400000, guid: ed65dde16a38c42a79b8011ae4ed0bbb, type: 2}
      propertyPath: m_LocalRotation.w
      value: 1
      objectReference: {fileID: 0}
    - target: {fileID: 400000, guid: ed65dde16a38c42a79b8011ae4ed0bbb, type: 2}
      propertyPath: m_RootOrder
      value: 7
      objectReference: {fileID: 0}
    m_RemovedComponents: []
  m_ParentPrefab: {fileID: 100100000, guid: ed65dde16a38c42a79b8011ae4ed0bbb, type: 2}
  m_IsPrefabParent: 0
--- !u!20 &1930849547 stripped
Camera:
  m_PrefabParentObject: {fileID: 2000000, guid: 2bfe2b1bf4a544646aaf0e0ec87a34cd,
    type: 2}
  m_PrefabInternal: {fileID: 1333997703}
