%YAML 1.1
%TAG !u! tag:unity3d.com,2011:
--- !u!74 &7400000
AnimationClip:
  m_ObjectHideFlags: 0
  m_PrefabParentObject: {fileID: 0}
  m_PrefabInternal: {fileID: 0}
  m_Name: idle
  serializedVersion: 6
  m_Legacy: 0
  m_Compressed: 0
  m_UseHighQualityCurve: 1
  m_RotationCurves:
  - curve:
      serializedVersion: 2
      m_Curve:
      - time: 0
        value: {x: 0, y: 0, z: 0, w: 1}
        inSlope: {x: 0, y: 0, z: -.370776087, w: -.00229060627}
        outSlope: {x: 0, y: 0, z: -.370776087, w: -.00229060627}
        tangentMode: 0
      - time: .0333333351
        value: {x: 0, y: 0, z: -.0123592038, w: .999923646}
        inSlope: {x: 0, y: 0, z: -.389358699, w: -.00505417585}
        outSlope: {x: 0, y: 0, z: -.389358699, w: -.00505417585}
        tangentMode: 0
      - time: .0666666701
        value: {x: 0, y: 0, z: -.0259572472, w: .999663055}
        inSlope: {x: 0, y: 0, z: -.421820581, w: -.011149941}
        outSlope: {x: 0, y: 0, z: -.421820581, w: -.011149941}
        tangentMode: 0
      - time: .100000009
        value: {x: 0, y: 0, z: -.0404805802, w: .999180317}
        inSlope: {x: 0, y: 0, z: -.444866002, w: -.0181612372}
        outSlope: {x: 0, y: 0, z: -.444866002, w: -.0181612372}
        tangentMode: 0
      - time: .13333334
        value: {x: 0, y: 0, z: -.0556149818, w: .998452306}
        inSlope: {x: 0, y: 0, z: -.45848304, w: -.0256088395}
        outSlope: {x: 0, y: 0, z: -.45848304, w: -.0256088395}
        tangentMode: 0
      - time: .166666672
        value: {x: 0, y: 0, z: -.071046114, w: .997473061}
        inSlope: {x: 0, y: 0, z: -.462679118, w: -.0329554118}
        outSlope: {x: 0, y: 0, z: -.462679118, w: -.0329554118}
        tangentMode: 0
      - time: .200000003
        value: {x: 0, y: 0, z: -.0864602551, w: .996255279}
        inSlope: {x: 0, y: 0, z: -.457484066, w: -.0396314301}
        outSlope: {x: 0, y: 0, z: -.457484066, w: -.0396314301}
        tangentMode: 0
      - time: .233333334
        value: {x: 0, y: 0, z: -.101545051, w: .994830966}
        inSlope: {x: 0, y: 0, z: -.442949086, w: -.045073621}
        outSlope: {x: 0, y: 0, z: -.442949086, w: -.045073621}
        tangentMode: 0
      - time: .266666681
        value: {x: 0, y: 0, z: -.115990199, w: .99325037}
        inSlope: {x: 0, y: 0, z: -.419142485, w: -.0487491414}
        outSlope: {x: 0, y: 0, z: -.419142485, w: -.0487491414}
        tangentMode: 0
      - time: .300000012
        value: {x: 0, y: 0, z: -.129487887, w: .991581023}
        inSlope: {x: 0, y: 0, z: -.386144578, w: -.0501823463}
        outSlope: {x: 0, y: 0, z: -.386144578, w: -.0501823463}
        tangentMode: 0
      - time: .333333343
        value: {x: 0, y: 0, z: -.14173317, w: .989904881}
        inSlope: {x: 0, y: 0, z: -.344036937, w: -.0489869751}
        outSlope: {x: 0, y: 0, z: -.344036937, w: -.0489869751}
        tangentMode: 0
      - time: .366666675
        value: {x: 0, y: 0, z: -.15242368, w: .988315225}
        inSlope: {x: 0, y: 0, z: -.292892784, w: -.044892136}
        outSlope: {x: 0, y: 0, z: -.292892784, w: -.044892136}
        tangentMode: 0
      - time: .400000006
        value: {x: 0, y: 0, z: -.161259353, w: .986912072}
        inSlope: {x: 0, y: 0, z: -.232765704, w: -.0377735533}
        outSlope: {x: 0, y: 0, z: -.232765704, w: -.0377735533}
        tangentMode: 0
      - time: .433333337
        value: {x: 0, y: 0, z: -.167941391, w: .985796988}
        inSlope: {x: 0, y: 0, z: -.163676232, w: -.0276750363}
        outSlope: {x: 0, y: 0, z: -.163676232, w: -.0276750363}
        tangentMode: 0
      - time: .466666669
        value: {x: 0, y: 0, z: -.172171101, w: .98506707}
        inSlope: {x: 0, y: 0, z: -.0856022611, w: -.0148388753}
        outSlope: {x: 0, y: 0, z: -.0856022611, w: -.0148388753}
        tangentMode: 0
      - time: .5
        value: {x: 0, y: 0, z: -.173648208, w: .98480773}
        inSlope: {x: 0, y: 0, z: 2.03028321e-07, w: -3.49245965e-09}
        outSlope: {x: 0, y: 0, z: 2.03028321e-07, w: -3.49245965e-09}
        tangentMode: 0
      - time: .533333361
        value: {x: 0, y: 0, z: -.172171086, w: .98506707}
        inSlope: {x: 0, y: 0, z: .0856021792, w: .0148388613}
        outSlope: {x: 0, y: 0, z: .0856021792, w: .0148388613}
        tangentMode: 0
      - time: .566666722
        value: {x: 0, y: 0, z: -.167941391, w: .985796988}
        inSlope: {x: 0, y: 0, z: .163676307, w: .0276750103}
        outSlope: {x: 0, y: 0, z: .163676307, w: .0276750103}
        tangentMode: 0
      - time: .600000083
        value: {x: 0, y: 0, z: -.161259323, w: .986912072}
        inSlope: {x: 0, y: 0, z: .232765943, w: .0377735198}
        outSlope: {x: 0, y: 0, z: .232765943, w: .0377735198}
        tangentMode: 0
      - time: .633333445
        value: {x: 0, y: 0, z: -.15242365, w: .988315225}
        inSlope: {x: 0, y: 0, z: .292892754, w: .044892095}
        outSlope: {x: 0, y: 0, z: .292892754, w: .044892095}
        tangentMode: 0
      - time: .666666806
        value: {x: 0, y: 0, z: -.141733125, w: .989904881}
        inSlope: {x: 0, y: 0, z: .344037056, w: .0489869304}
        outSlope: {x: 0, y: 0, z: .344037056, w: .0489869304}
        tangentMode: 0
      - time: .700000167
        value: {x: 0, y: 0, z: -.129487827, w: .991581023}
        inSlope: {x: 0, y: 0, z: .386144817, w: .0501823016}
        outSlope: {x: 0, y: 0, z: .386144817, w: .0501823016}
        tangentMode: 0
      - time: .733333528
        value: {x: 0, y: 0, z: -.115990117, w: .99325037}
        inSlope: {x: 0, y: 0, z: .419142753, w: .0487491079}
        outSlope: {x: 0, y: 0, z: .419142753, w: .0487491079}
        tangentMode: 0
      - time: .766666889
        value: {x: 0, y: 0, z: -.101544954, w: .994830966}
        inSlope: {x: 0, y: 0, z: .442949355, w: .0450744852}
        outSlope: {x: 0, y: 0, z: .442949355, w: .0450744852}
        tangentMode: 0
      - time: .80000025
        value: {x: 0, y: 0, z: -.0864601359, w: .996255338}
        inSlope: {x: 0, y: 0, z: .457484335, w: .0396313928}
        outSlope: {x: 0, y: 0, z: .457484335, w: .0396313928}
        tangentMode: 0
      - time: .833333611
        value: {x: 0, y: 0, z: -.0710459724, w: .997473061}
        inSlope: {x: 0, y: 0, z: .462679029, w: .0329544879}
        outSlope: {x: 0, y: 0, z: .462679029, w: .0329544879}
        tangentMode: 0
      - time: .866666973
        value: {x: 0, y: 0, z: -.0556148402, w: .998452306}
        inSlope: {x: 0, y: 0, z: .458482742, w: .0256088153}
        outSlope: {x: 0, y: 0, z: .458482742, w: .0256088153}
        tangentMode: 0
      - time: .900000334
        value: {x: 0, y: 0, z: -.0404804312, w: .999180317}
        inSlope: {x: 0, y: 0, z: .444865972, w: .0181612223}
        outSlope: {x: 0, y: 0, z: .444865972, w: .0181612223}
        tangentMode: 0
      - time: .933333695
        value: {x: 0, y: 0, z: -.0259570833, w: .999663055}
        inSlope: {x: 0, y: 0, z: .421820104, w: .0111499336}
        outSlope: {x: 0, y: 0, z: .421820104, w: .0111499336}
        tangentMode: 0
      - time: .966667056
        value: {x: 0, y: 0, z: -.0123590678, w: .999923646}
        inSlope: {x: 0, y: 0, z: .389358103, w: .00505417353}
        outSlope: {x: 0, y: 0, z: .389358103, w: .00505417353}
        tangentMode: 0
      - time: 1.00000036
        value: {x: 0, y: 0, z: 1.24835765e-07, w: 1}
        inSlope: {x: 0, y: 0, z: .370776325, w: 0}
        outSlope: {x: 0, y: 0, z: .370776325, w: 0}
        tangentMode: 0
      - time: 1.03333366
        value: {x: 0, y: 0, z: .0123593304, w: .999923646}
        inSlope: {x: 0, y: 0, z: .389359027, w: -.00505418051}
        outSlope: {x: 0, y: 0, z: .389359027, w: -.00505418051}
        tangentMode: 0
      - time: 1.06666696
        value: {x: 0, y: 0, z: .0259573683, w: .999663055}
        inSlope: {x: 0, y: 0, z: .421820939, w: -.0111499541}
        outSlope: {x: 0, y: 0, z: .421820939, w: -.0111499541}
        tangentMode: 0
      - time: 1.10000026
        value: {x: 0, y: 0, z: .0404806994, w: .999180317}
        inSlope: {x: 0, y: 0, z: .444866121, w: -.018161254}
        outSlope: {x: 0, y: 0, z: .444866121, w: -.018161254}
        tangentMode: 0
      - time: 1.13333356
        value: {x: 0, y: 0, z: .0556150824, w: .998452306}
        inSlope: {x: 0, y: 0, z: .458482981, w: -.0256097559}
        outSlope: {x: 0, y: 0, z: .458482981, w: -.0256097559}
        tangentMode: 0
      - time: 1.16666687
        value: {x: 0, y: 0, z: .0710462034, w: .997473001}
        inSlope: {x: 0, y: 0, z: .462679148, w: -.0329554379}
        outSlope: {x: 0, y: 0, z: .462679148, w: -.0329554379}
        tangentMode: 0
      - time: 1.20000017
        value: {x: 0, y: 0, z: .0864603296, w: .996255279}
        inSlope: {x: 0, y: 0, z: .457484037, w: -.0396314636}
        outSlope: {x: 0, y: 0, z: .457484037, w: -.0396314636}
        tangentMode: 0
      - time: 1.23333347
        value: {x: 0, y: 0, z: .10154511, w: .994830906}
        inSlope: {x: 0, y: 0, z: .442949027, w: -.0450736731}
        outSlope: {x: 0, y: 0, z: .442949027, w: -.0450736731}
        tangentMode: 0
      - time: 1.26666677
        value: {x: 0, y: 0, z: .115990236, w: .99325037}
        inSlope: {x: 0, y: 0, z: .419142485, w: -.0487482995}
        outSlope: {x: 0, y: 0, z: .419142485, w: -.0487482995}
        tangentMode: 0
      - time: 1.30000007
        value: {x: 0, y: 0, z: .129487917, w: .991581023}
        inSlope: {x: 0, y: 0, z: .38614437, w: -.050182391}
        outSlope: {x: 0, y: 0, z: .38614437, w: -.050182391}
        tangentMode: 0
      - time: 1.33333337
        value: {x: 0, y: 0, z: .14173317, w: .989904881}
        inSlope: {x: 0, y: 0, z: .344036758, w: -.0489870161}
        outSlope: {x: 0, y: 0, z: .344036758, w: -.0489870161}
        tangentMode: 0
      - time: 1.36666667
        value: {x: 0, y: 0, z: .15242368, w: .988315225}
        inSlope: {x: 0, y: 0, z: .292892814, w: -.044892177}
        outSlope: {x: 0, y: 0, z: .292892814, w: -.044892177}
        tangentMode: 0
      - time: 1.39999998
        value: {x: 0, y: 0, z: .161259338, w: .986912072}
        inSlope: {x: 0, y: 0, z: .232765675, w: -.0377735868}
        outSlope: {x: 0, y: 0, z: .232765675, w: -.0377735868}
        tangentMode: 0
      - time: 1.43333328
        value: {x: 0, y: 0, z: .167941377, w: .985796988}
        inSlope: {x: 0, y: 0, z: .163676381, w: -.0276750587}
        outSlope: {x: 0, y: 0, z: .163676381, w: -.0276750587}
        tangentMode: 0
      - time: 1.46666658
        value: {x: 0, y: 0, z: .172171086, w: .98506707}
        inSlope: {x: 0, y: 0, z: .0856021121, w: -.0148388883}
        outSlope: {x: 0, y: 0, z: .0856021121, w: -.0148388883}
        tangentMode: 0
      - time: 1.49999988
        value: {x: 0, y: 0, z: .173648179, w: .98480773}
        inSlope: {x: 0, y: 0, z: 2.23517418e-07, w: 0}
        outSlope: {x: 0, y: 0, z: 2.23517418e-07, w: 0}
        tangentMode: 0
      - time: 1.53333318
        value: {x: 0, y: 0, z: .172171101, w: .98506707}
        inSlope: {x: 0, y: 0, z: -.0856014416, w: .0148388883}
        outSlope: {x: 0, y: 0, z: -.0856014416, w: .0148388883}
        tangentMode: 0
      - time: 1.56666648
        value: {x: 0, y: 0, z: .167941421, w: .985796988}
        inSlope: {x: 0, y: 0, z: -.163675696, w: .0276750587}
        outSlope: {x: 0, y: 0, z: -.163675696, w: .0276750587}
        tangentMode: 0
      - time: 1.59999979
        value: {x: 0, y: 0, z: .161259398, w: .986912072}
        inSlope: {x: 0, y: 0, z: -.232765228, w: .0377735868}
        outSlope: {x: 0, y: 0, z: -.232765228, w: .0377735868}
        tangentMode: 0
      - time: 1.63333309
        value: {x: 0, y: 0, z: .152423754, w: .988315225}
        inSlope: {x: 0, y: 0, z: -.292892575, w: .044892177}
        outSlope: {x: 0, y: 0, z: -.292892575, w: .044892177}
        tangentMode: 0
      - time: 1.66666639
        value: {x: 0, y: 0, z: .141733244, w: .989904881}
        inSlope: {x: 0, y: 0, z: -.344036341, w: .048986122}
        outSlope: {x: 0, y: 0, z: -.344036341, w: .048986122}
        tangentMode: 0
      - time: 1.69999969
        value: {x: 0, y: 0, z: .129488021, w: .991580963}
        inSlope: {x: 0, y: 0, z: -.386143804, w: .050182391}
        outSlope: {x: 0, y: 0, z: -.386143804, w: .050182391}
        tangentMode: 0
      - time: 1.73333299
        value: {x: 0, y: 0, z: .115990348, w: .99325037}
        inSlope: {x: 0, y: 0, z: -.419142246, w: .0487491935}
        outSlope: {x: 0, y: 0, z: -.419142246, w: .0487491935}
        tangentMode: 0
      - time: 1.76666629
        value: {x: 0, y: 0, z: .10154523, w: .994830906}
        inSlope: {x: 0, y: 0, z: -.442948908, w: .0450736731}
        outSlope: {x: 0, y: 0, z: -.442948908, w: .0450736731}
        tangentMode: 0
      - time: 1.79999959
        value: {x: 0, y: 0, z: .0864604488, w: .996255279}
        inSlope: {x: 0, y: 0, z: -.457484037, w: .0396314636}
        outSlope: {x: 0, y: 0, z: -.457484037, w: .0396314636}
        tangentMode: 0
      - time: 1.8333329
        value: {x: 0, y: 0, z: .0710463226, w: .997473001}
        inSlope: {x: 0, y: 0, z: -.462679207, w: .0329554379}
        outSlope: {x: 0, y: 0, z: -.462679207, w: .0329554379}
        tangentMode: 0
      - time: 1.8666662
        value: {x: 0, y: 0, z: .0556151979, w: .998452306}
        inSlope: {x: 0, y: 0, z: -.45848316, w: .0256097559}
        outSlope: {x: 0, y: 0, z: -.45848316, w: .0256097559}
        tangentMode: 0
      - time: 1.8999995
        value: {x: 0, y: 0, z: .0404808074, w: .999180317}
        inSlope: {x: 0, y: 0, z: -.44486618, w: .018161254}
        outSlope: {x: 0, y: 0, z: -.44486618, w: .018161254}
        tangentMode: 0
      - time: 1.9333328
        value: {x: 0, y: 0, z: .0259574819, w: .999663055}
        inSlope: {x: 0, y: 0, z: -.421821237, w: .0111499541}
        outSlope: {x: 0, y: 0, z: -.421821237, w: .0111499541}
        tangentMode: 0
      - time: 1.9666661
        value: {x: 0, y: 0, z: .012359417, w: .999923646}
        inSlope: {x: 0, y: 0, z: -.389359295, w: .00505416002}
        outSlope: {x: 0, y: 0, z: -.389359295, w: .00505416002}
        tangentMode: 0
      - time: 2
        value: {x: 0, y: 0, z: 0, w: 1}
        inSlope: {x: 0, y: 0, z: -.370776236, w: .00229056762}
        outSlope: {x: 0, y: 0, z: -.370776236, w: .00229056762}
        tangentMode: 0
      m_PreInfinity: 2
      m_PostInfinity: 2
    path: Top
  m_CompressedRotationCurves: []
  m_PositionCurves: []
  m_ScaleCurves: []
  m_FloatCurves:
  - curve:
      serializedVersion: 2
      m_Curve:
      - time: 0
        value: 0
        inSlope: Infinity
        outSlope: Infinity
        tangentMode: 31
      - time: 2
        value: 0
        inSlope: Infinity
        outSlope: Infinity
        tangentMode: 31
      m_PreInfinity: 2
      m_PostInfinity: 2
    attribute: m_IsActive
    path: Top/Star
    classID: 1
    script: {fileID: 0}
  m_PPtrCurves: []
  m_SampleRate: 30
  m_WrapMode: 0
  m_Bounds:
    m_Center: {x: 0, y: 0, z: 0}
    m_Extent: {x: 0, y: 0, z: 0}
  m_ClipBindingConstant:
    genericBindings:
    - path: 647256362
      attribute: 2
      script: {fileID: 0}
      classID: 4
      customType: 0
      isPPtrCurve: 0
    - path: 3383656827
      attribute: 2086281974
      script: {fileID: 0}
      classID: 1
      customType: 0
      isPPtrCurve: 0
    pptrCurveMapping: []
  m_AnimationClipSettings:
    serializedVersion: 2
    m_StartTime: 0
    m_StopTime: 2
    m_OrientationOffsetY: 0
    m_Level: 0
    m_CycleOffset: 0
    m_LoopTime: 1
    m_LoopBlend: 0
    m_LoopBlendOrientation: 0
    m_LoopBlendPositionY: 0
    m_LoopBlendPositionXZ: 0
    m_KeepOriginalOrientation: 0
    m_KeepOriginalPositionY: 1
    m_KeepOriginalPositionXZ: 0
    m_HeightFromFeet: 0
    m_Mirror: 0
  m_EditorCurves:
  - curve:
      serializedVersion: 2
      m_Curve:
      - time: 0
        value: 0
        inSlope: Infinity
        outSlope: Infinity
        tangentMode: 31
      - time: 2
        value: 0
        inSlope: Infinity
        outSlope: Infinity
        tangentMode: 31
      m_PreInfinity: 2
      m_PostInfinity: 2
    attribute: m_IsActive
    path: Top/Star
    classID: 1
    script: {fileID: 0}
  - curve:
      serializedVersion: 2
      m_Curve:
      - time: 0
        value: 0
        inSlope: 0
        outSlope: 0
        tangentMode: 0
      - time: .0333333351
        value: 0
        inSlope: 0
        outSlope: 0
        tangentMode: 0
      - time: .0666666701
        value: 0
        inSlope: 0
        outSlope: 0
        tangentMode: 0
      - time: .100000009
        value: 0
        inSlope: 0
        outSlope: 0
        tangentMode: 0
      - time: .13333334
        value: 0
        inSlope: 0
        outSlope: 0
        tangentMode: 0
      - time: .166666672
        value: 0
        inSlope: 0
        outSlope: 0
        tangentMode: 0
      - time: .200000003
        value: 0
        inSlope: 0
        outSlope: 0
        tangentMode: 0
      - time: .233333334
        value: 0
        inSlope: 0
        outSlope: 0
        tangentMode: 0
      - time: .266666681
        value: 0
        inSlope: 0
        outSlope: 0
        tangentMode: 0
      - time: .300000012
        value: 0
        inSlope: 0
        outSlope: 0
        tangentMode: 0
      - time: .333333343
        value: 0
        inSlope: 0
        outSlope: 0
        tangentMode: 0
      - time: .366666675
        value: 0
        inSlope: 0
        outSlope: 0
        tangentMode: 0
      - time: .400000006
        value: 0
        inSlope: 0
        outSlope: 0
        tangentMode: 0
      - time: .433333337
        value: 0
        inSlope: 0
        outSlope: 0
        tangentMode: 0
      - time: .466666669
        value: 0
        inSlope: 0
        outSlope: 0
        tangentMode: 0
      - time: .5
        value: 0
        inSlope: 0
        outSlope: 0
        tangentMode: 0
      - time: .533333361
        value: 0
        inSlope: 0
        outSlope: 0
        tangentMode: 0
      - time: .566666722
        value: 0
        inSlope: 0
        outSlope: 0
        tangentMode: 0
      - time: .600000083
        value: 0
        inSlope: 0
        outSlope: 0
        tangentMode: 0
      - time: .633333445
        value: 0
        inSlope: 0
        outSlope: 0
        tangentMode: 0
      - time: .666666806
        value: 0
        inSlope: 0
        outSlope: 0
        tangentMode: 0
      - time: .700000167
        value: 0
        inSlope: 0
        outSlope: 0
        tangentMode: 0
      - time: .733333528
        value: 0
        inSlope: 0
        outSlope: 0
        tangentMode: 0
      - time: .766666889
        value: 0
        inSlope: 0
        outSlope: 0
        tangentMode: 0
      - time: .80000025
        value: 0
        inSlope: 0
        outSlope: 0
        tangentMode: 0
      - time: .833333611
        value: 0
        inSlope: 0
        outSlope: 0
        tangentMode: 0
      - time: .866666973
        value: 0
        inSlope: 0
        outSlope: 0
        tangentMode: 0
      - time: .900000334
        value: 0
        inSlope: 0
        outSlope: 0
        tangentMode: 0
      - time: .933333695
        value: 0
        inSlope: 0
        outSlope: 0
        tangentMode: 0
      - time: .966667056
        value: 0
        inSlope: 0
        outSlope: 0
        tangentMode: 0
      - time: 1.00000036
        value: 0
        inSlope: 0
        outSlope: 0
        tangentMode: 0
      - time: 1.03333366
        value: 0
        inSlope: 0
        outSlope: 0
        tangentMode: 0
      - time: 1.06666696
        value: 0
        inSlope: 0
        outSlope: 0
        tangentMode: 0
      - time: 1.10000026
        value: 0
        inSlope: 0
        outSlope: 0
        tangentMode: 0
      - time: 1.13333356
        value: 0
        inSlope: 0
        outSlope: 0
        tangentMode: 0
      - time: 1.16666687
        value: 0
        inSlope: 0
        outSlope: 0
        tangentMode: 0
      - time: 1.20000017
        value: 0
        inSlope: 0
        outSlope: 0
        tangentMode: 0
      - time: 1.23333347
        value: 0
        inSlope: 0
        outSlope: 0
        tangentMode: 0
      - time: 1.26666677
        value: 0
        inSlope: 0
        outSlope: 0
        tangentMode: 0
      - time: 1.30000007
        value: 0
        inSlope: 0
        outSlope: 0
        tangentMode: 0
      - time: 1.33333337
        value: 0
        inSlope: 0
        outSlope: 0
        tangentMode: 0
      - time: 1.36666667
        value: 0
        inSlope: 0
        outSlope: 0
        tangentMode: 0
      - time: 1.39999998
        value: 0
        inSlope: 0
        outSlope: 0
        tangentMode: 0
      - time: 1.43333328
        value: 0
        inSlope: 0
        outSlope: 0
        tangentMode: 0
      - time: 1.46666658
        value: 0
        inSlope: 0
        outSlope: 0
        tangentMode: 0
      - time: 1.49999988
        value: 0
        inSlope: 0
        outSlope: 0
        tangentMode: 0
      - time: 1.53333318
        value: 0
        inSlope: 0
        outSlope: 0
        tangentMode: 0
      - time: 1.56666648
        value: 0
        inSlope: 0
        outSlope: 0
        tangentMode: 0
      - time: 1.59999979
        value: 0
        inSlope: 0
        outSlope: 0
        tangentMode: 0
      - time: 1.63333309
        value: 0
        inSlope: 0
        outSlope: 0
        tangentMode: 0
      - time: 1.66666639
        value: 0
        inSlope: 0
        outSlope: 0
        tangentMode: 0
      - time: 1.69999969
        value: 0
        inSlope: 0
        outSlope: 0
        tangentMode: 0
      - time: 1.73333299
        value: 0
        inSlope: 0
        outSlope: 0
        tangentMode: 0
      - time: 1.76666629
        value: 0
        inSlope: 0
        outSlope: 0
        tangentMode: 0
      - time: 1.79999959
        value: 0
        inSlope: 0
        outSlope: 0
        tangentMode: 0
      - time: 1.8333329
        value: 0
        inSlope: 0
        outSlope: 0
        tangentMode: 0
      - time: 1.8666662
        value: 0
        inSlope: 0
        outSlope: 0
        tangentMode: 0
      - time: 1.8999995
        value: 0
        inSlope: 0
        outSlope: 0
        tangentMode: 0
      - time: 1.9333328
        value: 0
        inSlope: 0
        outSlope: 0
        tangentMode: 0
      - time: 1.9666661
        value: 0
        inSlope: 0
        outSlope: 0
        tangentMode: 0
      - time: 2
        value: 0
        inSlope: 0
        outSlope: 0
        tangentMode: 0
      m_PreInfinity: 2
      m_PostInfinity: 2
    attribute: m_LocalRotation.x
    path: Top
    classID: 4
    script: {fileID: 0}
  - curve:
      serializedVersion: 2
      m_Curve:
      - time: 0
        value: 0
        inSlope: 0
        outSlope: 0
        tangentMode: 0
      - time: .0333333351
        value: 0
        inSlope: 0
        outSlope: 0
        tangentMode: 0
      - time: .0666666701
        value: 0
        inSlope: 0
        outSlope: 0
        tangentMode: 0
      - time: .100000009
        value: 0
        inSlope: 0
        outSlope: 0
        tangentMode: 0
      - time: .13333334
        value: 0
        inSlope: 0
        outSlope: 0
        tangentMode: 0
      - time: .166666672
        value: 0
        inSlope: 0
        outSlope: 0
        tangentMode: 0
      - time: .200000003
        value: 0
        inSlope: 0
        outSlope: 0
        tangentMode: 0
      - time: .233333334
        value: 0
        inSlope: 0
        outSlope: 0
        tangentMode: 0
      - time: .266666681
        value: 0
        inSlope: 0
        outSlope: 0
        tangentMode: 0
      - time: .300000012
        value: 0
        inSlope: 0
        outSlope: 0
        tangentMode: 0
      - time: .333333343
        value: 0
        inSlope: 0
        outSlope: 0
        tangentMode: 0
      - time: .366666675
        value: 0
        inSlope: 0
        outSlope: 0
        tangentMode: 0
      - time: .400000006
        value: 0
        inSlope: 0
        outSlope: 0
        tangentMode: 0
      - time: .433333337
        value: 0
        inSlope: 0
        outSlope: 0
        tangentMode: 0
      - time: .466666669
        value: 0
        inSlope: 0
        outSlope: 0
        tangentMode: 0
      - time: .5
        value: 0
        inSlope: 0
        outSlope: 0
        tangentMode: 0
      - time: .533333361
        value: 0
        inSlope: 0
        outSlope: 0
        tangentMode: 0
      - time: .566666722
        value: 0
        inSlope: 0
        outSlope: 0
        tangentMode: 0
      - time: .600000083
        value: 0
        inSlope: 0
        outSlope: 0
        tangentMode: 0
      - time: .633333445
        value: 0
        inSlope: 0
        outSlope: 0
        tangentMode: 0
      - time: .666666806
        value: 0
        inSlope: 0
        outSlope: 0
        tangentMode: 0
      - time: .700000167
        value: 0
        inSlope: 0
        outSlope: 0
        tangentMode: 0
      - time: .733333528
        value: 0
        inSlope: 0
        outSlope: 0
        tangentMode: 0
      - time: .766666889
        value: 0
        inSlope: 0
        outSlope: 0
        tangentMode: 0
      - time: .80000025
        value: 0
        inSlope: 0
        outSlope: 0
        tangentMode: 0
      - time: .833333611
        value: 0
        inSlope: 0
        outSlope: 0
        tangentMode: 0
      - time: .866666973
        value: 0
        inSlope: 0
        outSlope: 0
        tangentMode: 0
      - time: .900000334
        value: 0
        inSlope: 0
        outSlope: 0
        tangentMode: 0
      - time: .933333695
        value: 0
        inSlope: 0
        outSlope: 0
        tangentMode: 0
      - time: .966667056
        value: 0
        inSlope: 0
        outSlope: 0
        tangentMode: 0
      - time: 1.00000036
        value: 0
        inSlope: 0
        outSlope: 0
        tangentMode: 0
      - time: 1.03333366
        value: 0
        inSlope: 0
        outSlope: 0
        tangentMode: 0
      - time: 1.06666696
        value: 0
        inSlope: 0
        outSlope: 0
        tangentMode: 0
      - time: 1.10000026
        value: 0
        inSlope: 0
        outSlope: 0
        tangentMode: 0
      - time: 1.13333356
        value: 0
        inSlope: 0
        outSlope: 0
        tangentMode: 0
      - time: 1.16666687
        value: 0
        inSlope: 0
        outSlope: 0
        tangentMode: 0
      - time: 1.20000017
        value: 0
        inSlope: 0
        outSlope: 0
        tangentMode: 0
      - time: 1.23333347
        value: 0
        inSlope: 0
        outSlope: 0
        tangentMode: 0
      - time: 1.26666677
        value: 0
        inSlope: 0
        outSlope: 0
        tangentMode: 0
      - time: 1.30000007
        value: 0
        inSlope: 0
        outSlope: 0
        tangentMode: 0
      - time: 1.33333337
        value: 0
        inSlope: 0
        outSlope: 0
        tangentMode: 0
      - time: 1.36666667
        value: 0
        inSlope: 0
        outSlope: 0
        tangentMode: 0
      - time: 1.39999998
        value: 0
        inSlope: 0
        outSlope: 0
        tangentMode: 0
      - time: 1.43333328
        value: 0
        inSlope: 0
        outSlope: 0
        tangentMode: 0
      - time: 1.46666658
        value: 0
        inSlope: 0
        outSlope: 0
        tangentMode: 0
      - time: 1.49999988
        value: 0
        inSlope: 0
        outSlope: 0
        tangentMode: 0
      - time: 1.53333318
        value: 0
        inSlope: 0
        outSlope: 0
        tangentMode: 0
      - time: 1.56666648
        value: 0
        inSlope: 0
        outSlope: 0
        tangentMode: 0
      - time: 1.59999979
        value: 0
        inSlope: 0
        outSlope: 0
        tangentMode: 0
      - time: 1.63333309
        value: 0
        inSlope: 0
        outSlope: 0
        tangentMode: 0
      - time: 1.66666639
        value: 0
        inSlope: 0
        outSlope: 0
        tangentMode: 0
      - time: 1.69999969
        value: 0
        inSlope: 0
        outSlope: 0
        tangentMode: 0
      - time: 1.73333299
        value: 0
        inSlope: 0
        outSlope: 0
        tangentMode: 0
      - time: 1.76666629
        value: 0
        inSlope: 0
        outSlope: 0
        tangentMode: 0
      - time: 1.79999959
        value: 0
        inSlope: 0
        outSlope: 0
        tangentMode: 0
      - time: 1.8333329
        value: 0
        inSlope: 0
        outSlope: 0
        tangentMode: 0
      - time: 1.8666662
        value: 0
        inSlope: 0
        outSlope: 0
        tangentMode: 0
      - time: 1.8999995
        value: 0
        inSlope: 0
        outSlope: 0
        tangentMode: 0
      - time: 1.9333328
        value: 0
        inSlope: 0
        outSlope: 0
        tangentMode: 0
      - time: 1.9666661
        value: 0
        inSlope: 0
        outSlope: 0
        tangentMode: 0
      - time: 2
        value: 0
        inSlope: 0
        outSlope: 0
        tangentMode: 0
      m_PreInfinity: 2
      m_PostInfinity: 2
    attribute: m_LocalRotation.y
    path: Top
    classID: 4
    script: {fileID: 0}
  - curve:
      serializedVersion: 2
      m_Curve:
      - time: 0
        value: 0
        inSlope: -.370776087
        outSlope: -.370776087
        tangentMode: 0
      - time: .0333333351
        value: -.0123592038
        inSlope: -.389358699
        outSlope: -.389358699
        tangentMode: 0
      - time: .0666666701
        value: -.0259572472
        inSlope: -.421820581
        outSlope: -.421820581
        tangentMode: 0
      - time: .100000009
        value: -.0404805802
        inSlope: -.444866002
        outSlope: -.444866002
        tangentMode: 0
      - time: .13333334
        value: -.0556149818
        inSlope: -.45848304
        outSlope: -.45848304
        tangentMode: 0
      - time: .166666672
        value: -.071046114
        inSlope: -.462679118
        outSlope: -.462679118
        tangentMode: 0
      - time: .200000003
        value: -.0864602551
        inSlope: -.457484066
        outSlope: -.457484066
        tangentMode: 0
      - time: .233333334
        value: -.101545051
        inSlope: -.442949086
        outSlope: -.442949086
        tangentMode: 0
      - time: .266666681
        value: -.115990199
        inSlope: -.419142485
        outSlope: -.419142485
        tangentMode: 0
      - time: .300000012
        value: -.129487887
        inSlope: -.386144578
        outSlope: -.386144578
        tangentMode: 0
      - time: .333333343
        value: -.14173317
        inSlope: -.344036937
        outSlope: -.344036937
        tangentMode: 0
      - time: .366666675
        value: -.15242368
        inSlope: -.292892784
        outSlope: -.292892784
        tangentMode: 0
      - time: .400000006
        value: -.161259353
        inSlope: -.232765704
        outSlope: -.232765704
        tangentMode: 0
      - time: .433333337
        value: -.167941391
        inSlope: -.163676232
        outSlope: -.163676232
        tangentMode: 0
      - time: .466666669
        value: -.172171101
        inSlope: -.0856022611
        outSlope: -.0856022611
        tangentMode: 0
      - time: .5
        value: -.173648208
        inSlope: 2.03028321e-07
        outSlope: 2.03028321e-07
        tangentMode: 0
      - time: .533333361
        value: -.172171086
        inSlope: .0856021792
        outSlope: .0856021792
        tangentMode: 0
      - time: .566666722
        value: -.167941391
        inSlope: .163676307
        outSlope: .163676307
        tangentMode: 0
      - time: .600000083
        value: -.161259323
        inSlope: .232765943
        outSlope: .232765943
        tangentMode: 0
      - time: .633333445
        value: -.15242365
        inSlope: .292892754
        outSlope: .292892754
        tangentMode: 0
      - time: .666666806
        value: -.141733125
        inSlope: .344037056
        outSlope: .344037056
        tangentMode: 0
      - time: .700000167
        value: -.129487827
        inSlope: .386144817
        outSlope: .386144817
        tangentMode: 0
      - time: .733333528
        value: -.115990117
        inSlope: .419142753
        outSlope: .419142753
        tangentMode: 0
      - time: .766666889
        value: -.101544954
        inSlope: .442949355
        outSlope: .442949355
        tangentMode: 0
      - time: .80000025
        value: -.0864601359
        inSlope: .457484335
        outSlope: .457484335
        tangentMode: 0
      - time: .833333611
        value: -.0710459724
        inSlope: .462679029
        outSlope: .462679029
        tangentMode: 0
      - time: .866666973
        value: -.0556148402
        inSlope: .458482742
        outSlope: .458482742
        tangentMode: 0
      - time: .900000334
        value: -.0404804312
        inSlope: .444865972
        outSlope: .444865972
        tangentMode: 0
      - time: .933333695
        value: -.0259570833
        inSlope: .421820104
        outSlope: .421820104
        tangentMode: 0
      - time: .966667056
        value: -.0123590678
        inSlope: .389358103
        outSlope: .389358103
        tangentMode: 0
      - time: 1.00000036
        value: 1.24835765e-07
        inSlope: .370776325
        outSlope: .370776325
        tangentMode: 0
      - time: 1.03333366
        value: .0123593304
        inSlope: .389359027
        outSlope: .389359027
        tangentMode: 0
      - time: 1.06666696
        value: .0259573683
        inSlope: .421820939
        outSlope: .421820939
        tangentMode: 0
      - time: 1.10000026
        value: .0404806994
        inSlope: .444866121
        outSlope: .444866121
        tangentMode: 0
      - time: 1.13333356
        value: .0556150824
        inSlope: .458482981
        outSlope: .458482981
        tangentMode: 0
      - time: 1.16666687
        value: .0710462034
        inSlope: .462679148
        outSlope: .462679148
        tangentMode: 0
      - time: 1.20000017
        value: .0864603296
        inSlope: .457484037
        outSlope: .457484037
        tangentMode: 0
      - time: 1.23333347
        value: .10154511
        inSlope: .442949027
        outSlope: .442949027
        tangentMode: 0
      - time: 1.26666677
        value: .115990236
        inSlope: .419142485
        outSlope: .419142485
        tangentMode: 0
      - time: 1.30000007
        value: .129487917
        inSlope: .38614437
        outSlope: .38614437
        tangentMode: 0
      - time: 1.33333337
        value: .14173317
        inSlope: .344036758
        outSlope: .344036758
        tangentMode: 0
      - time: 1.36666667
        value: .15242368
        inSlope: .292892814
        outSlope: .292892814
        tangentMode: 0
      - time: 1.39999998
        value: .161259338
        inSlope: .232765675
        outSlope: .232765675
        tangentMode: 0
      - time: 1.43333328
        value: .167941377
        inSlope: .163676381
        outSlope: .163676381
        tangentMode: 0
      - time: 1.46666658
        value: .172171086
        inSlope: .0856021121
        outSlope: .0856021121
        tangentMode: 0
      - time: 1.49999988
        value: .173648179
        inSlope: 2.23517418e-07
        outSlope: 2.23517418e-07
        tangentMode: 0
      - time: 1.53333318
        value: .172171101
        inSlope: -.0856014416
        outSlope: -.0856014416
        tangentMode: 0
      - time: 1.56666648
        value: .167941421
        inSlope: -.163675696
        outSlope: -.163675696
        tangentMode: 0
      - time: 1.59999979
        value: .161259398
        inSlope: -.232765228
        outSlope: -.232765228
        tangentMode: 0
      - time: 1.63333309
        value: .152423754
        inSlope: -.292892575
        outSlope: -.292892575
        tangentMode: 0
      - time: 1.66666639
        value: .141733244
        inSlope: -.344036341
        outSlope: -.344036341
        tangentMode: 0
      - time: 1.69999969
        value: .129488021
        inSlope: -.386143804
        outSlope: -.386143804
        tangentMode: 0
      - time: 1.73333299
        value: .115990348
        inSlope: -.419142246
        outSlope: -.419142246
        tangentMode: 0
      - time: 1.76666629
        value: .10154523
        inSlope: -.442948908
        outSlope: -.442948908
        tangentMode: 0
      - time: 1.79999959
        value: .0864604488
        inSlope: -.457484037
        outSlope: -.457484037
        tangentMode: 0
      - time: 1.8333329
        value: .0710463226
        inSlope: -.462679207
        outSlope: -.462679207
        tangentMode: 0
      - time: 1.8666662
        value: .0556151979
        inSlope: -.45848316
        outSlope: -.45848316
        tangentMode: 0
      - time: 1.8999995
        value: .0404808074
        inSlope: -.44486618
        outSlope: -.44486618
        tangentMode: 0
      - time: 1.9333328
        value: .0259574819
        inSlope: -.421821237
        outSlope: -.421821237
        tangentMode: 0
      - time: 1.9666661
        value: .012359417
        inSlope: -.389359295
        outSlope: -.389359295
        tangentMode: 0
      - time: 2
        value: 0
        inSlope: -.370776236
        outSlope: -.370776236
        tangentMode: 0
      m_PreInfinity: 2
      m_PostInfinity: 2
    attribute: m_LocalRotation.z
    path: Top
    classID: 4
    script: {fileID: 0}
  - curve:
      serializedVersion: 2
      m_Curve:
      - time: 0
        value: 1
        inSlope: -.00229060627
        outSlope: -.00229060627
        tangentMode: 0
      - time: .0333333351
        value: .999923646
        inSlope: -.00505417585
        outSlope: -.00505417585
        tangentMode: 0
      - time: .0666666701
        value: .999663055
        inSlope: -.011149941
        outSlope: -.011149941
        tangentMode: 0
      - time: .100000009
        value: .999180317
        inSlope: -.0181612372
        outSlope: -.0181612372
        tangentMode: 0
      - time: .13333334
        value: .998452306
        inSlope: -.0256088395
        outSlope: -.0256088395
        tangentMode: 0
      - time: .166666672
        value: .997473061
        inSlope: -.0329554118
        outSlope: -.0329554118
        tangentMode: 0
      - time: .200000003
        value: .996255279
        inSlope: -.0396314301
        outSlope: -.0396314301
        tangentMode: 0
      - time: .233333334
        value: .994830966
        inSlope: -.045073621
        outSlope: -.045073621
        tangentMode: 0
      - time: .266666681
        value: .99325037
        inSlope: -.0487491414
        outSlope: -.0487491414
        tangentMode: 0
      - time: .300000012
        value: .991581023
        inSlope: -.0501823463
        outSlope: -.0501823463
        tangentMode: 0
      - time: .333333343
        value: .989904881
        inSlope: -.0489869751
        outSlope: -.0489869751
        tangentMode: 0
      - time: .366666675
        value: .988315225
        inSlope: -.044892136
        outSlope: -.044892136
        tangentMode: 0
      - time: .400000006
        value: .986912072
        inSlope: -.0377735533
        outSlope: -.0377735533
        tangentMode: 0
      - time: .433333337
        value: .985796988
        inSlope: -.0276750363
        outSlope: -.0276750363
        tangentMode: 0
      - time: .466666669
        value: .98506707
        inSlope: -.0148388753
        outSlope: -.0148388753
        tangentMode: 0
      - time: .5
        value: .98480773
        inSlope: -3.49245965e-09
        outSlope: -3.49245965e-09
        tangentMode: 0
      - time: .533333361
        value: .98506707
        inSlope: .0148388613
        outSlope: .0148388613
        tangentMode: 0
      - time: .566666722
        value: .985796988
        inSlope: .0276750103
        outSlope: .0276750103
        tangentMode: 0
      - time: .600000083
        value: .986912072
        inSlope: .0377735198
        outSlope: .0377735198
        tangentMode: 0
      - time: .633333445
        value: .988315225
        inSlope: .044892095
        outSlope: .044892095
        tangentMode: 0
      - time: .666666806
        value: .989904881
        inSlope: .0489869304
        outSlope: .0489869304
        tangentMode: 0
      - time: .700000167
        value: .991581023
        inSlope: .0501823016
        outSlope: .0501823016
        tangentMode: 0
      - time: .733333528
        value: .99325037
        inSlope: .0487491079
        outSlope: .0487491079
        tangentMode: 0
      - time: .766666889
        value: .994830966
        inSlope: .0450744852
        outSlope: .0450744852
        tangentMode: 0
      - time: .80000025
        value: .996255338
        inSlope: .0396313928
        outSlope: .0396313928
        tangentMode: 0
      - time: .833333611
        value: .997473061
        inSlope: .0329544879
        outSlope: .0329544879
        tangentMode: 0
      - time: .866666973
        value: .998452306
        inSlope: .0256088153
        outSlope: .0256088153
        tangentMode: 0
      - time: .900000334
        value: .999180317
        inSlope: .0181612223
        outSlope: .0181612223
        tangentMode: 0
      - time: .933333695
        value: .999663055
        inSlope: .0111499336
        outSlope: .0111499336
        tangentMode: 0
      - time: .966667056
        value: .999923646
        inSlope: .00505417353
        outSlope: .00505417353
        tangentMode: 0
      - time: 1.00000036
        value: 1
        inSlope: 0
        outSlope: 0
        tangentMode: 0
      - time: 1.03333366
        value: .999923646
        inSlope: -.00505418051
        outSlope: -.00505418051
        tangentMode: 0
      - time: 1.06666696
        value: .999663055
        inSlope: -.0111499541
        outSlope: -.0111499541
        tangentMode: 0
      - time: 1.10000026
        value: .999180317
        inSlope: -.018161254
        outSlope: -.018161254
        tangentMode: 0
      - time: 1.13333356
        value: .998452306
        inSlope: -.0256097559
        outSlope: -.0256097559
        tangentMode: 0
      - time: 1.16666687
        value: .997473001
        inSlope: -.0329554379
        outSlope: -.0329554379
        tangentMode: 0
      - time: 1.20000017
        value: .996255279
        inSlope: -.0396314636
        outSlope: -.0396314636
        tangentMode: 0
      - time: 1.23333347
        value: .994830906
        inSlope: -.0450736731
        outSlope: -.0450736731
        tangentMode: 0
      - time: 1.26666677
        value: .99325037
        inSlope: -.0487482995
        outSlope: -.0487482995
        tangentMode: 0
      - time: 1.30000007
        value: .991581023
        inSlope: -.050182391
        outSlope: -.050182391
        tangentMode: 0
      - time: 1.33333337
        value: .989904881
        inSlope: -.0489870161
        outSlope: -.0489870161
        tangentMode: 0
      - time: 1.36666667
        value: .988315225
        inSlope: -.044892177
        outSlope: -.044892177
        tangentMode: 0
      - time: 1.39999998
        value: .986912072
        inSlope: -.0377735868
        outSlope: -.0377735868
        tangentMode: 0
      - time: 1.43333328
        value: .985796988
        inSlope: -.0276750587
        outSlope: -.0276750587
        tangentMode: 0
      - time: 1.46666658
        value: .98506707
        inSlope: -.0148388883
        outSlope: -.0148388883
        tangentMode: 0
      - time: 1.49999988
        value: .98480773
        inSlope: 0
        outSlope: 0
        tangentMode: 0
      - time: 1.53333318
        value: .98506707
        inSlope: .0148388883
        outSlope: .0148388883
        tangentMode: 0
      - time: 1.56666648
        value: .985796988
        inSlope: .0276750587
        outSlope: .0276750587
        tangentMode: 0
      - time: 1.59999979
        value: .986912072
        inSlope: .0377735868
        outSlope: .0377735868
        tangentMode: 0
      - time: 1.63333309
        value: .988315225
        inSlope: .044892177
        outSlope: .044892177
        tangentMode: 0
      - time: 1.66666639
        value: .989904881
        inSlope: .048986122
        outSlope: .048986122
        tangentMode: 0
      - time: 1.69999969
        value: .991580963
        inSlope: .050182391
        outSlope: .050182391
        tangentMode: 0
      - time: 1.73333299
        value: .99325037
        inSlope: .0487491935
        outSlope: .0487491935
        tangentMode: 0
      - time: 1.76666629
        value: .994830906
        inSlope: .0450736731
        outSlope: .0450736731
        tangentMode: 0
      - time: 1.79999959
        value: .996255279
        inSlope: .0396314636
        outSlope: .0396314636
        tangentMode: 0
      - time: 1.8333329
        value: .997473001
        inSlope: .0329554379
        outSlope: .0329554379
        tangentMode: 0
      - time: 1.8666662
        value: .998452306
        inSlope: .0256097559
        outSlope: .0256097559
        tangentMode: 0
      - time: 1.8999995
        value: .999180317
        inSlope: .018161254
        outSlope: .018161254
        tangentMode: 0
      - time: 1.9333328
        value: .999663055
        inSlope: .0111499541
        outSlope: .0111499541
        tangentMode: 0
      - time: 1.9666661
        value: .999923646
        inSlope: .00505416002
        outSlope: .00505416002
        tangentMode: 0
      - time: 2
        value: 1
        inSlope: .00229056762
        outSlope: .00229056762
        tangentMode: 0
      m_PreInfinity: 2
      m_PostInfinity: 2
    attribute: m_LocalRotation.w
    path: Top
    classID: 4
    script: {fileID: 0}
  m_EulerEditorCurves:
  - curve:
      serializedVersion: 2
      m_Curve:
      - time: 0
        value: 0
        inSlope: 0
        outSlope: 0
        tangentMode: 10
      - time: .5
        value: 0
        inSlope: 0
        outSlope: 0
        tangentMode: 10
      - time: 1
        value: 0
        inSlope: 0
        outSlope: 0
        tangentMode: 10
      - time: 1.5
        value: 0
        inSlope: 0
        outSlope: 0
        tangentMode: 10
      - time: 2
        value: 0
        inSlope: 0
        outSlope: 0
        tangentMode: 10
      m_PreInfinity: 2
      m_PostInfinity: 2
    attribute: localEulerAnglesBaked.x
    path: Top
    classID: 4
    script: {fileID: 0}
  - curve:
      serializedVersion: 2
      m_Curve:
      - time: 0
        value: 0
        inSlope: 0
        outSlope: 0
        tangentMode: 10
      - time: .5
        value: 0
        inSlope: 0
        outSlope: 0
        tangentMode: 10
      - time: 1
        value: 0
        inSlope: 0
        outSlope: 0
        tangentMode: 10
      - time: 1.5
        value: 0
        inSlope: 0
        outSlope: 0
        tangentMode: 10
      - time: 2
        value: 0
        inSlope: 0
        outSlope: 0
        tangentMode: 10
      m_PreInfinity: 2
      m_PostInfinity: 2
    attribute: localEulerAnglesBaked.y
    path: Top
    classID: 4
    script: {fileID: 0}
  - curve:
      serializedVersion: 2
      m_Curve:
      - time: 0
        value: 0
        inSlope: -40
        outSlope: -40
        tangentMode: 10
      - time: .5
        value: -20
        inSlope: 0
        outSlope: 0
        tangentMode: 10
      - time: 1
        value: 0
        inSlope: 40
        outSlope: 40
        tangentMode: 10
      - time: 1.5
        value: 20
        inSlope: 0
        outSlope: 0
        tangentMode: 10
      - time: 2
        value: 0
        inSlope: -40
        outSlope: -40
        tangentMode: 10
      m_PreInfinity: 2
      m_PostInfinity: 2
    attribute: localEulerAnglesBaked.z
    path: Top
    classID: 4
    script: {fileID: 0}
  m_HasGenericRootTransform: 0
  m_HasMotionFloatCurves: 0
  m_GenerateMotionCurves: 0
  m_Events: []
