%YAML 1.1
%TAG !u! tag:unity3d.com,2011:
--- !u!74 &7400000
AnimationClip:
  m_ObjectHideFlags: 0
  m_PrefabParentObject: {fileID: 0}
  m_PrefabInternal: {fileID: 0}
  m_Name: fox jump
  serializedVersion: 6
  m_Legacy: 0
  m_Compressed: 0
  m_UseHighQualityCurve: 1
  m_RotationCurves: []
  m_CompressedRotationCurves: []
  m_PositionCurves: []
  m_ScaleCurves: []
  m_FloatCurves: []
  m_PPtrCurves:
  - curve:
    - time: 0
      value: {fileID: 21300000, guid: 768f4ba867875436ba2b55c68098ae21, type: 3}
    - time: .0333333351
      value: {fileID: 21300002, guid: 768f4ba867875436ba2b55c68098ae21, type: 3}
    - time: .0666666701
      value: {fileID: 21300004, guid: 768f4ba867875436ba2b55c68098ae21, type: 3}
    - time: .100000001
      value: {fileID: 21300006, guid: 768f4ba867875436ba2b55c68098ae21, type: 3}
    - time: .13333334
      value: {fileID: 21300008, guid: 768f4ba867875436ba2b55c68098ae21, type: 3}
    - time: .166666672
      value: {fileID: 21300010, guid: 768f4ba867875436ba2b55c68098ae21, type: 3}
    - time: .200000003
      value: {fileID: 21300012, guid: 768f4ba867875436ba2b55c68098ae21, type: 3}
    - time: .233333334
      value: {fileID: 21300014, guid: 768f4ba867875436ba2b55c68098ae21, type: 3}
    - time: .266666681
      value: {fileID: 21300016, guid: 768f4ba867875436ba2b55c68098ae21, type: 3}
    - time: .300000012
      value: {fileID: 21300018, guid: 768f4ba867875436ba2b55c68098ae21, type: 3}
    - time: .333333343
      value: {fileID: 21300020, guid: 768f4ba867875436ba2b55c68098ae21, type: 3}
    - time: .366666675
      value: {fileID: 21300022, guid: 768f4ba867875436ba2b55c68098ae21, type: 3}
    - time: .400000006
      value: {fileID: 21300024, guid: 768f4ba867875436ba2b55c68098ae21, type: 3}
    - time: .433333337
      value: {fileID: 21300026, guid: 768f4ba867875436ba2b55c68098ae21, type: 3}
    - time: .466666669
      value: {fileID: 21300028, guid: 768f4ba867875436ba2b55c68098ae21, type: 3}
    - time: .5
      value: {fileID: 21300030, guid: 768f4ba867875436ba2b55c68098ae21, type: 3}
    - time: .533333361
      value: {fileID: 21300032, guid: 768f4ba867875436ba2b55c68098ae21, type: 3}
    - time: .566666663
      value: {fileID: 21300034, guid: 768f4ba867875436ba2b55c68098ae21, type: 3}
    - time: .600000024
      value: {fileID: 21300036, guid: 768f4ba867875436ba2b55c68098ae21, type: 3}
    - time: .633333325
      value: {fileID: 21300038, guid: 768f4ba867875436ba2b55c68098ae21, type: 3}
    - time: .666666687
      value: {fileID: 21300040, guid: 768f4ba867875436ba2b55c68098ae21, type: 3}
    - time: .699999988
      value: {fileID: 21300042, guid: 768f4ba867875436ba2b55c68098ae21, type: 3}
    - time: .733333349
      value: {fileID: 21300044, guid: 768f4ba867875436ba2b55c68098ae21, type: 3}
    - time: .766666651
      value: {fileID: 21300046, guid: 768f4ba867875436ba2b55c68098ae21, type: 3}
    - time: .800000012
      value: {fileID: 21300048, guid: 768f4ba867875436ba2b55c68098ae21, type: 3}
    - time: .833333313
      value: {fileID: 21300050, guid: 768f4ba867875436ba2b55c68098ae21, type: 3}
    - time: .866666675
      value: {fileID: 21300052, guid: 768f4ba867875436ba2b55c68098ae21, type: 3}
    - time: .899999976
      value: {fileID: 21300054, guid: 768f4ba867875436ba2b55c68098ae21, type: 3}
    attribute: m_Sprite
    path: Body
    classID: 212
    script: {fileID: 0}
  m_SampleRate: 30
  m_WrapMode: 0
  m_Bounds:
    m_Center: {x: 0, y: 0, z: 0}
    m_Extent: {x: 0, y: 0, z: 0}
  m_ClipBindingConstant:
    genericBindings:
    - path: 2073732236
      attribute: 0
      script: {fileID: 0}
      classID: 212
      customType: 23
      isPPtrCurve: 1
    pptrCurveMapping:
    - {fileID: 21300000, guid: 768f4ba867875436ba2b55c68098ae21, type: 3}
    - {fileID: 21300002, guid: 768f4ba867875436ba2b55c68098ae21, type: 3}
    - {fileID: 21300004, guid: 768f4ba867875436ba2b55c68098ae21, type: 3}
    - {fileID: 21300006, guid: 768f4ba867875436ba2b55c68098ae21, type: 3}
    - {fileID: 21300008, guid: 768f4ba867875436ba2b55c68098ae21, type: 3}
    - {fileID: 21300010, guid: 768f4ba867875436ba2b55c68098ae21, type: 3}
    - {fileID: 21300012, guid: 768f4ba867875436ba2b55c68098ae21, type: 3}
    - {fileID: 21300014, guid: 768f4ba867875436ba2b55c68098ae21, type: 3}
    - {fileID: 21300016, guid: 768f4ba867875436ba2b55c68098ae21, type: 3}
    - {fileID: 21300018, guid: 768f4ba867875436ba2b55c68098ae21, type: 3}
    - {fileID: 21300020, guid: 768f4ba867875436ba2b55c68098ae21, type: 3}
    - {fileID: 21300022, guid: 768f4ba867875436ba2b55c68098ae21, type: 3}
    - {fileID: 21300024, guid: 768f4ba867875436ba2b55c68098ae21, type: 3}
    - {fileID: 21300026, guid: 768f4ba867875436ba2b55c68098ae21, type: 3}
    - {fileID: 21300028, guid: 768f4ba867875436ba2b55c68098ae21, type: 3}
    - {fileID: 21300030, guid: 768f4ba867875436ba2b55c68098ae21, type: 3}
    - {fileID: 21300032, guid: 768f4ba867875436ba2b55c68098ae21, type: 3}
    - {fileID: 21300034, guid: 768f4ba867875436ba2b55c68098ae21, type: 3}
    - {fileID: 21300036, guid: 768f4ba867875436ba2b55c68098ae21, type: 3}
    - {fileID: 21300038, guid: 768f4ba867875436ba2b55c68098ae21, type: 3}
    - {fileID: 21300040, guid: 768f4ba867875436ba2b55c68098ae21, type: 3}
    - {fileID: 21300042, guid: 768f4ba867875436ba2b55c68098ae21, type: 3}
    - {fileID: 21300044, guid: 768f4ba867875436ba2b55c68098ae21, type: 3}
    - {fileID: 21300046, guid: 768f4ba867875436ba2b55c68098ae21, type: 3}
    - {fileID: 21300048, guid: 768f4ba867875436ba2b55c68098ae21, type: 3}
    - {fileID: 21300050, guid: 768f4ba867875436ba2b55c68098ae21, type: 3}
    - {fileID: 21300052, guid: 768f4ba867875436ba2b55c68098ae21, type: 3}
    - {fileID: 21300054, guid: 768f4ba867875436ba2b55c68098ae21, type: 3}
  m_AnimationClipSettings:
    serializedVersion: 2
    m_StartTime: 0
    m_StopTime: .933333337
    m_OrientationOffsetY: 0
    m_Level: 0
    m_CycleOffset: 0
    m_LoopTime: 1
    m_LoopBlend: 0
    m_LoopBlendOrientation: 0
    m_LoopBlendPositionY: 0
    m_LoopBlendPositionXZ: 0
    m_KeepOriginalOrientation: 0
    m_KeepOriginalPositionY: 1
    m_KeepOriginalPositionXZ: 0
    m_HeightFromFeet: 0
    m_Mirror: 0
  m_EditorCurves: []
  m_EulerEditorCurves: []
  m_HasGenericRootTransform: 0
  m_HasMotionFloatCurves: 0
  m_GenerateMotionCurves: 0
  m_Events:
  - time: 0
    functionName: SetSpeed
    data: 
    objectReferenceParameter: {fileID: 0}
    floatParameter: 3
    intParameter: 0
    messageOptions: 0
  - time: .600000024
    functionName: SetSpeed
    data: 
    objectReferenceParameter: {fileID: 0}
    floatParameter: 0
    intParameter: 0
    messageOptions: 0
